src/generator.vcd
$date
	Sat Oct 24 13:56:24 2020
$end
$version
	Icarus Verilog
$end
$timescale
	100ps
$end
$scope module BUF $end
$var wire 1 ! A $end
$var wire 1 " Y $end
$upscope $end
$scope module DFFSR $end
$var wire 1 # C $end
$var wire 1 $ D $end
$var wire 1 % R $end
$var wire 1 & S $end
$var reg 1 ' Q $end
$upscope $end
$scope module TestBench $end
$var wire 5 ( salida_gray [4:0] $end
$var wire 1 ) reset_L $end
$var wire 5 * gray_output [4:0] $end
$var wire 1 + err $end
$var wire 1 , enable $end
$var wire 1 - clk $end
$scope module COND $end
$var wire 1 ) reset_L $end
$var wire 1 , enable $end
$var wire 1 - clk $end
$var reg 5 . count [4:0] $end
$var reg 5 / gray_output [4:0] $end
$upscope $end
$scope module PROBADOR_ $end
$var wire 5 0 gray_output [4:0] $end
$var wire 5 1 salida_gray [4:0] $end
$var reg 1 - clk $end
$var reg 1 , enable $end
$var reg 1 + err $end
$var reg 1 ) reset_L $end
$upscope $end
$scope module SYNTH $end
$var wire 1 - clk $end
$var wire 1 , enable $end
$var wire 1 ) reset_L $end
$var wire 2 2 xor_output_cnt [1:0] $end
$var wire 5 3 salida_gray [4:0] $end
$var wire 5 4 count [4:0] $end
$var wire 1 5 _046_ $end
$var wire 1 6 _045_ $end
$var wire 1 7 _044_ $end
$var wire 1 8 _043_ $end
$var wire 1 9 _042_ $end
$var wire 1 : _041_ $end
$var wire 1 ; _040_ $end
$var wire 1 < _039_ $end
$var wire 1 = _038_ $end
$var wire 1 > _037_ $end
$var wire 1 ? _036_ $end
$var wire 1 @ _035_ $end
$var wire 1 A _034_ $end
$var wire 1 B _033_ $end
$var wire 1 C _032_ $end
$var wire 1 D _031_ $end
$var wire 1 E _030_ $end
$var wire 1 F _029_ $end
$var wire 1 G _028_ $end
$var wire 1 H _027_ $end
$var wire 1 I _026_ $end
$var wire 1 J _025_ $end
$var wire 1 K _024_ $end
$var wire 1 L _023_ $end
$var wire 1 M _022_ $end
$var wire 1 N _021_ $end
$var wire 1 O _020_ $end
$var wire 1 P _019_ $end
$var wire 1 Q _018_ $end
$var wire 1 R _017_ $end
$var wire 1 S _016_ $end
$var wire 1 T _015_ $end
$var wire 1 U _014_ $end
$var wire 1 V _013_ $end
$var wire 1 W _012_ $end
$var wire 1 X _011_ $end
$var wire 1 Y _010_ $end
$var wire 1 Z _009_ $end
$var wire 1 [ _008_ $end
$var wire 1 \ _007_ $end
$var wire 1 ] _006_ $end
$var wire 1 ^ _005_ $end
$var wire 1 _ _004_ $end
$var wire 1 ` _003_ $end
$var wire 1 a _002_ $end
$var wire 2 b _001_ [1:0] $end
$var wire 5 c _000_ [4:0] $end
$scope module _047_ $end
$var wire 1 d A $end
$var wire 1 a Y $end
$upscope $end
$scope module _048_ $end
$var wire 1 e A $end
$var wire 1 ` Y $end
$upscope $end
$scope module _049_ $end
$var wire 1 f A $end
$var wire 1 _ Y $end
$upscope $end
$scope module _050_ $end
$var wire 1 g A $end
$var wire 1 ^ Y $end
$upscope $end
$scope module _051_ $end
$var wire 1 h A $end
$var wire 1 ] Y $end
$upscope $end
$scope module _052_ $end
$var wire 1 , A $end
$var wire 1 i B $end
$var wire 1 \ Y $end
$upscope $end
$scope module _053_ $end
$var wire 1 \ A $end
$var wire 1 [ Y $end
$upscope $end
$scope module _054_ $end
$var wire 1 ^ A $end
$var wire 1 ] B $end
$var wire 1 Z Y $end
$upscope $end
$scope module _055_ $end
$var wire 1 j A $end
$var wire 1 k B $end
$var wire 1 Y Y $end
$upscope $end
$scope module _056_ $end
$var wire 1 [ A $end
$var wire 1 Z B $end
$var wire 1 X Y $end
$upscope $end
$scope module _057_ $end
$var wire 1 l A $end
$var wire 1 m B $end
$var wire 1 W Y $end
$upscope $end
$scope module _058_ $end
$var wire 1 W A $end
$var wire 1 V Y $end
$upscope $end
$scope module _059_ $end
$var wire 1 n A $end
$var wire 1 o B $end
$var wire 1 U Y $end
$upscope $end
$scope module _060_ $end
$var wire 1 ^ A $end
$var wire 1 \ B $end
$var wire 1 T Y $end
$upscope $end
$scope module _061_ $end
$var wire 1 p A $end
$var wire 1 q B $end
$var wire 1 S Y $end
$upscope $end
$scope module _062_ $end
$var wire 1 S A $end
$var wire 1 R Y $end
$upscope $end
$scope module _063_ $end
$var wire 1 a A $end
$var wire 1 X B $end
$var wire 1 Q Y $end
$upscope $end
$scope module _064_ $end
$var wire 1 X A $end
$var wire 1 W B $end
$var wire 1 P Y $end
$upscope $end
$scope module _065_ $end
$var wire 1 r A $end
$var wire 1 Q B $end
$var wire 1 O Y $end
$upscope $end
$scope module _066_ $end
$var wire 1 ` A $end
$var wire 1 O B $end
$var wire 1 N Y $end
$upscope $end
$scope module _067_ $end
$var wire 1 s A $end
$var wire 1 P B $end
$var wire 1 M Y $end
$upscope $end
$scope module _068_ $end
$var wire 1 ` A $end
$var wire 1 O B $end
$var wire 1 L Y $end
$upscope $end
$scope module _069_ $end
$var wire 1 ) A $end
$var wire 1 L B $end
$var wire 1 K Y $end
$upscope $end
$scope module _070_ $end
$var wire 1 N A $end
$var wire 1 K B $end
$var wire 1 t Y $end
$upscope $end
$scope module _071_ $end
$var wire 1 _ A $end
$var wire 1 M B $end
$var wire 1 J Y $end
$upscope $end
$scope module _072_ $end
$var wire 1 _ A $end
$var wire 1 M B $end
$var wire 1 I Y $end
$upscope $end
$scope module _073_ $end
$var wire 1 ) A $end
$var wire 1 I B $end
$var wire 1 H Y $end
$upscope $end
$scope module _074_ $end
$var wire 1 J A $end
$var wire 1 H B $end
$var wire 1 u Y $end
$upscope $end
$scope module _075_ $end
$var wire 1 , A $end
$var wire 1 v B $end
$var wire 1 G Y $end
$upscope $end
$scope module _076_ $end
$var wire 1 ) A $end
$var wire 1 \ B $end
$var wire 1 F Y $end
$upscope $end
$scope module _077_ $end
$var wire 1 G A $end
$var wire 1 F B $end
$var wire 1 w Y $end
$upscope $end
$scope module _078_ $end
$var wire 1 ^ A $end
$var wire 1 \ B $end
$var wire 1 E Y $end
$upscope $end
$scope module _079_ $end
$var wire 1 ) A $end
$var wire 1 E B $end
$var wire 1 D Y $end
$upscope $end
$scope module _080_ $end
$var wire 1 T A $end
$var wire 1 D B $end
$var wire 1 x Y $end
$upscope $end
$scope module _081_ $end
$var wire 1 y A $end
$var wire 1 T B $end
$var wire 1 C Y $end
$upscope $end
$scope module _082_ $end
$var wire 1 ) A $end
$var wire 1 X B $end
$var wire 1 B Y $end
$upscope $end
$scope module _083_ $end
$var wire 1 C A $end
$var wire 1 B B $end
$var wire 1 z Y $end
$upscope $end
$scope module _084_ $end
$var wire 1 a A $end
$var wire 1 X B $end
$var wire 1 A Y $end
$upscope $end
$scope module _085_ $end
$var wire 1 ) A $end
$var wire 1 A B $end
$var wire 1 @ Y $end
$upscope $end
$scope module _086_ $end
$var wire 1 Q A $end
$var wire 1 @ B $end
$var wire 1 { Y $end
$upscope $end
$scope module _087_ $end
$var wire 1 | A $end
$var wire 1 Q B $end
$var wire 1 ? Y $end
$upscope $end
$scope module _088_ $end
$var wire 1 ) A $end
$var wire 1 O B $end
$var wire 1 > Y $end
$upscope $end
$scope module _089_ $end
$var wire 1 ? A $end
$var wire 1 > B $end
$var wire 1 } Y $end
$upscope $end
$scope module _090_ $end
$var wire 1 ~ A $end
$var wire 1 !" B $end
$var wire 1 = Y $end
$upscope $end
$scope module _091_ $end
$var wire 1 "" A $end
$var wire 1 #" B $end
$var wire 1 < Y $end
$upscope $end
$scope module _092_ $end
$var wire 1 ` A $end
$var wire 1 $" B $end
$var wire 1 ; Y $end
$upscope $end
$scope module _093_ $end
$var wire 1 Y A $end
$var wire 1 ; B $end
$var wire 1 : Y $end
$upscope $end
$scope module _094_ $end
$var wire 1 < A $end
$var wire 1 : B $end
$var wire 1 9 Y $end
$upscope $end
$scope module _095_ $end
$var wire 1 9 A $end
$var wire 1 8 Y $end
$upscope $end
$scope module _096_ $end
$var wire 1 U A $end
$var wire 1 8 B $end
$var wire 1 7 Y $end
$upscope $end
$scope module _097_ $end
$var wire 1 = A $end
$var wire 1 7 B $end
$var wire 1 %" Y $end
$upscope $end
$scope module _098_ $end
$var wire 1 &" A $end
$var wire 1 '" B $end
$var wire 1 6 Y $end
$upscope $end
$scope module _099_ $end
$var wire 1 Z A $end
$var wire 1 6 B $end
$var wire 1 (" Y $end
$upscope $end
$scope module _100_ $end
$var wire 1 )" A $end
$var wire 1 *" B $end
$var wire 1 5 Y $end
$upscope $end
$scope module _101_ $end
$var wire 1 R A $end
$var wire 1 5 B $end
$var wire 1 +" Y $end
$upscope $end
$scope module _102_ $end
$var wire 1 V A $end
$var wire 1 < B $end
$var wire 1 ," Y $end
$upscope $end
$scope module _103_ $end
$var wire 1 - C $end
$var wire 1 -" D $end
$var reg 1 ." Q $end
$upscope $end
$scope module _104_ $end
$var wire 1 - C $end
$var wire 1 /" D $end
$var reg 1 0" Q $end
$upscope $end
$scope module _105_ $end
$var wire 1 - C $end
$var wire 1 1" D $end
$var reg 1 2" Q $end
$upscope $end
$scope module _106_ $end
$var wire 1 - C $end
$var wire 1 3" D $end
$var reg 1 4" Q $end
$upscope $end
$scope module _107_ $end
$var wire 1 - C $end
$var wire 1 5" D $end
$var reg 1 6" Q $end
$upscope $end
$scope module _108_ $end
$var wire 1 - C $end
$var wire 1 7" D $end
$var reg 1 8" Q $end
$upscope $end
$scope module _109_ $end
$var wire 1 - C $end
$var wire 1 9" D $end
$var reg 1 :" Q $end
$upscope $end
$upscope $end
$upscope $end
$enddefinitions $end
#0
$dumpvars
x:"
x9"
x8"
x7"
x6"
x5"
x4"
x3"
x2"
x1"
x0"
x/"
x."
x-"
x,"
x+"
x*"
x)"
x("
x'"
x&"
x%"
x$"
x#"
x""
x!"
x~
x}
x|
x{
xz
xy
xx
xw
xv
xu
xt
xs
xr
xq
xp
xo
xn
xm
xl
xk
xj
xi
xh
xg
xf
xe
xd
bx c
bx b
xa
x`
x_
x^
x]
x\
x[
xZ
xY
xX
xW
xV
xU
xT
xS
xR
xQ
xP
xO
xN
xM
xL
xK
xJ
xI
xH
xG
xF
xE
xD
xC
xB
xA
x@
x?
x>
x=
x<
x;
x:
x9
x8
x7
x6
x5
bx 4
bx 3
bx 2
bx 1
bx 0
bx /
bx .
0-
x,
x+
bx *
x)
bx (
x'
z&
z%
z$
z#
z"
z!
$end
#10
b0 .
0N
0J
1O
1M
0Q
0P
1X
07"
09"
0-"
0/"
01"
03"
05"
0T
0t
b0 b
0u
0w
0x
0z
0{
b0 c
0}
0[
1\
1K
1H
1F
1D
1B
1@
1>
0,
0)
1-
#20
0-
#30
08
19
0,"
0+"
0("
0:
0%"
07
0I
0L
0V
0A
0R
0Z
0E
1;
1?
1<
1W
15
1C
1S
16
1Y
1=
1G
1U
1_
1`
1a
1]
1^
0$"
0f
0s
0e
b0 (
b0 1
b0 3
0#"
0|
0r
0m
0)"
0""
0p
0l
0d
0*"
0'"
0y
0q
0k
0h
0&"
0!"
0o
0j
0g
0~
0v
0n
0i
0:"
b0 2
08"
06"
04"
02"
00"
b0 4
0."
0+
1-
b0 *
b0 /
b0 0
#40
0-
#50
0F
0B
0>
1)
1-
#60
0-
#70
1-"
b1 c
1w
0G
1,
1-
#80
0-
#90
1/"
1x
0-"
b10 c
0w
0D
b1 (
b1 1
b1 3
1%"
1F
1E
1[
0=
0\
0+
b1 *
b1 /
b1 0
1~
1v
1n
1i
b1 .
b1 4
1."
1-
#100
0-
#110
1-"
b11 c
1w
b11 (
b11 1
b11 3
1("
0F
0[
06
1\
0^
0+
1&"
1!"
1o
1j
1g
0~
0v
0n
0i
b11 *
b11 /
b11 0
10"
b10 4
0."
b10 .
1-
#120
0-
#130
11"
1z
0/"
0-"
b10 (
b10 1
b10 3
0%"
0x
0C
b100 c
0w
17
1T
1F
1[
0U
0\
0+
b10 *
b10 /
b10 0
1~
1v
1n
1i
b11 .
b11 4
1."
1-
#140
0-
#150
1-"
0/"
1w
b101 c
0x
1D
b110 (
b110 1
b110 3
1+"
07
0F
0T
0E
0[
05
1=
1U
1\
0]
1^
0+
1*"
1'"
1y
1q
1k
1h
0&"
0!"
0o
0j
0g
0~
0v
0n
0i
b110 *
b110 /
b110 0
12"
00"
b100 4
0."
b100 .
1-
#160
0-
#170
1/"
1x
0-"
b110 c
0w
0D
b111 (
b111 1
b111 3
1%"
1F
1E
1[
0=
0\
0+
b111 *
b111 /
b111 0
1~
1v
1n
1i
b101 .
b101 4
1."
1-
#180
0-
#190
1-"
b111 c
1w
b101 (
b101 1
b101 3
0("
0F
1Z
0[
0Y
1\
0^
0+
1&"
1!"
1o
1j
1g
0~
0v
0n
0i
b101 *
b101 /
b101 0
10"
b110 4
0."
b110 .
1-
#200
0-
#210
13"
1{
01"
0z
0@
1B
1A
0/"
0-"
b100 (
b100 1
b100 3
0%"
0x
b1000 c
0w
0X
17
1T
1F
1[
0U
0\
0+
b100 *
b100 /
b100 0
1~
1v
1n
1i
b111 .
b111 4
1."
1-
#220
0-
#230
05"
0}
0B
1-"
13"
0/"
1w
1{
1?
b1001 c
0x
1C
1D
1X
b1100 (
b1100 1
b1100 3
1,"
07
0F
0Q
0Z
0T
0E
0[
0<
16
1Y
1=
1U
1\
0a
1]
1^
0+
1)"
1""
1p
1l
1d
0*"
0'"
0y
0q
0k
0h
0&"
0!"
0o
0j
0g
0~
0v
0n
0i
b1100 *
b1100 /
b1100 0
14"
02"
00"
b1000 4
0."
b1000 .
1-
#240
0-
#250
1/"
1x
0-"
b1010 c
0w
0D
b1101 (
b1101 1
b1101 3
1%"
1F
1E
1[
0=
0\
0+
b1101 *
b1101 /
b1101 0
1~
1v
1n
1i
b1001 .
b1001 4
1."
1-
#260
0-
#270
1-"
b1011 c
1w
b1111 (
b1111 1
b1111 3
1("
0F
0[
06
1\
0^
0+
1&"
1!"
1o
1j
1g
0~
0v
0n
0i
b1111 *
b1111 /
b1111 0
10"
b1010 4
0."
b1010 .
1-
#280
0-
#290
11"
1z
0/"
0-"
b1110 (
b1110 1
b1110 3
0%"
0x
0C
b1100 c
0w
17
1T
1F
1[
0U
0\
0+
b1110 *
b1110 /
b1110 0
1~
1v
1n
1i
b1011 .
b1011 4
1."
1-
#300
0-
#310
1-"
0/"
1w
b1010 (
b1010 1
b1010 3
0+"
b1101 c
0x
1D
07
0F
1R
0T
0E
0[
0S
1=
1U
1\
0]
1^
0+
1*"
1'"
1y
1q
1k
1h
0&"
0!"
0o
0j
0g
0~
0v
0n
0i
b1010 *
b1010 /
b1010 0
12"
00"
b1100 4
0."
b1100 .
1-
#320
0-
#330
1/"
1x
0-"
b1110 c
0w
0D
b1011 (
b1011 1
b1011 3
1%"
1F
1E
1[
0=
0\
0+
b1011 *
b1011 /
b1011 0
1~
1v
1n
1i
b1101 .
b1101 4
1."
1-
#340
0-
#350
1-"
b1111 c
1w
b1001 (
b1001 1
b1001 3
0("
0F
1Z
0[
0Y
1\
0^
0+
1&"
1!"
1o
1j
1g
0~
0v
0n
0i
b1001 *
b1001 /
b1001 0
10"
b1110 4
0."
b1110 .
1-
#360
0-
#370
15"
1}
03"
01"
0{
0?
0z
1Q
1B
0/"
0-"
b1000 (
b1000 1
b1000 3
0%"
0x
b10000 c
0w
0X
17
1T
1F
1[
0U
0\
0+
b1000 *
b1000 /
b1000 0
1~
1v
1n
1i
b1111 .
b1111 4
1."
1-
#380
0-
#390
07"
1@
b0 b
0t
15"
0B
0A
1-"
1K
1}
03"
0/"
1w
0{
b10001 c
0x
1C
1D
1X
0L
0>
07
0F
0Q
0R
0Z
0T
0E
0[
1O
15
1S
16
1Y
1=
1U
1\
1a
1]
1^
b11000 (
b11000 1
b11000 3
1#"
1|
1r
1m
0)"
0""
0p
0l
0d
0*"
0'"
0y
0q
0k
0h
0&"
0!"
0o
0j
0g
0~
0v
0n
0i
b11000 *
b11000 /
b11000 0
16"
04"
02"
00"
b10000 4
0."
b10000 .
1-
#400
0-
#410
1/"
1x
0-"
b10010 c
0w
0D
b11001 (
b11001 1
b11001 3
1%"
1F
1E
1[
0=
0\
0+
b11001 *
b11001 /
b11001 0
1~
1v
1n
1i
b10001 .
b10001 4
1."
1-
#420
0-
#430
1-"
b10011 c
1w
b11011 (
b11011 1
b11011 3
1("
0F
0[
06
1\
0^
0+
1&"
1!"
1o
1j
1g
0~
0v
0n
0i
b11011 *
b11011 /
b11011 0
10"
b10010 4
0."
b10010 .
1-
#440
0-
#450
11"
1z
0/"
0-"
b11010 (
b11010 1
b11010 3
0%"
0x
0C
b10100 c
0w
17
1T
1F
1[
0U
0\
0+
b11010 *
b11010 /
b11010 0
1~
1v
1n
1i
b10011 .
b10011 4
1."
1-
#460
0-
#470
1-"
0/"
1w
b10101 c
0x
1D
b11110 (
b11110 1
b11110 3
1+"
07
0F
0T
0E
0[
05
1=
1U
1\
0]
1^
0+
1*"
1'"
1y
1q
1k
1h
0&"
0!"
0o
0j
0g
0~
0v
0n
0i
b11110 *
b11110 /
b11110 0
12"
00"
b10100 4
0."
b10100 .
1-
#480
0-
#490
1/"
1x
0-"
b10110 c
0w
0D
b11111 (
b11111 1
b11111 3
1%"
1F
1E
1[
0=
0\
0+
b11111 *
b11111 /
b11111 0
1~
1v
1n
1i
b10101 .
b10101 4
1."
1-
#500
0-
#510
1-"
b10111 c
1w
b11101 (
b11101 1
b11101 3
0("
0F
1Z
0[
0Y
1\
0^
0+
1&"
1!"
1o
1j
1g
0~
0v
0n
0i
b11101 *
b11101 /
b11101 0
10"
b10110 4
0."
b10110 .
1-
#520
0-
#530
13"
1{
01"
0z
0@
1B
1A
0/"
0-"
b11100 (
b11100 1
b11100 3
0%"
0x
b11000 c
0w
0X
17
1T
1F
1[
0U
0\
0+
b11100 *
b11100 /
b11100 0
1~
1v
1n
1i
b10111 .
b10111 4
1."
1-
#540
0-
#550
07"
b0 b
0t
15"
1K
1}
0L
0>
0B
1-"
13"
0/"
1w
b10100 (
b10100 1
b10100 3
0,"
1O
1{
b11001 c
0x
1C
1D
1X
0P
07
0F
1V
0Q
0Z
0T
0E
0[
0W
16
1Y
1=
1U
1\
0a
1]
1^
0+
1)"
1""
1p
1l
1d
0*"
0'"
0y
0q
0k
0h
0&"
0!"
0o
0j
0g
0~
0v
0n
0i
b10100 *
b10100 /
b10100 0
14"
02"
00"
b11000 4
0."
b11000 .
1-
#560
0-
#570
1/"
1x
0-"
b11010 c
0w
0D
b10101 (
b10101 1
b10101 3
1%"
1F
1E
1[
0=
0\
0+
b10101 *
b10101 /
b10101 0
1~
1v
1n
1i
b11001 .
b11001 4
1."
1-
#580
0-
#590
1-"
b11011 c
1w
b10111 (
b10111 1
b10111 3
1("
0F
0[
06
1\
0^
0+
1&"
1!"
1o
1j
1g
0~
0v
0n
0i
b10111 *
b10111 /
b10111 0
10"
b11010 4
0."
b11010 .
1-
#600
0-
#610
11"
1z
0/"
0-"
b10110 (
b10110 1
b10110 3
0%"
0x
0C
b11100 c
0w
17
1T
1F
1[
0U
0\
0+
b10110 *
b10110 /
b10110 0
1~
1v
1n
1i
b11011 .
b11011 4
1."
1-
#620
0-
#630
1-"
0/"
1w
b10010 (
b10010 1
b10010 3
0+"
b11101 c
0x
1D
07
0F
1R
0T
0E
0[
0S
1=
1U
1\
0]
1^
0+
1*"
1'"
1y
1q
1k
1h
0&"
0!"
0o
0j
0g
0~
0v
0n
0i
b10010 *
b10010 /
b10010 0
12"
00"
b11100 4
0."
b11100 .
1-
#640
0-
#650
1/"
1x
0-"
b11110 c
0w
0D
b10011 (
b10011 1
b10011 3
1%"
1F
1E
1[
0=
0\
0+
b10011 *
b10011 /
b10011 0
1~
1v
1n
1i
b11101 .
b11101 4
1."
1-
#660
0-
#670
1-"
b11111 c
1w
b10001 (
b10001 1
b10001 3
0("
0F
1Z
0[
0Y
1\
0^
0+
1&"
1!"
1o
1j
1g
0~
0v
0n
0i
b10001 *
b10001 /
b10001 0
10"
b11110 4
0."
b11110 .
1-
#680
0-
#690
17"
b1 b
1t
05"
0K
0}
1L
1>
03"
01"
0O
0{
0z
1Q
1P
1B
0/"
0-"
b10000 (
b10000 1
b10000 3
0%"
0x
b0 c
0w
0X
17
1T
1F
1[
0U
0\
0+
b10000 *
b10000 /
b10000 0
1~
1v
1n
1i
b11111 .
b11111 4
1."
1-
#700
0-
#710
09"
1@
b1 b
0u
0B
0A
1-"
1H
03"
0/"
1w
0{
1?
b1 c
0x
1C
1D
1X
0I
0>
0P
07
0F
0V
0Q
0R
0Z
0T
0E
0[
1M
1O
1<
1W
15
1S
16
1Y
1=
1U
1\
0`
1a
1]
1^
1s
1e
b0 (
b0 1
b0 3
0#"
0|
0r
0m
0)"
0""
0p
0l
0d
0*"
0'"
0y
0q
0k
0h
0&"
0!"
0o
0j
0g
0~
0v
0n
0i
b0 *
b0 /
b0 0
b1 2
18"
06"
04"
02"
00"
b0 4
0."
b0 .
1-
#720
0-
#730
1/"
1x
0-"
b10 c
0w
0D
b1 (
b1 1
b1 3
1%"
1F
1E
1[
0=
0\
0+
b1 *
b1 /
b1 0
1~
1v
1n
1i
b1 .
b1 4
1."
1-
#740
0-
#750
1-"
b11 c
1w
b11 (
b11 1
b11 3
1("
0F
0[
06
1\
0^
0+
1&"
1!"
1o
1j
1g
0~
0v
0n
0i
b11 *
b11 /
b11 0
10"
b10 4
0."
b10 .
1-
#760
0-
#770
11"
1z
0/"
0-"
b10 (
b10 1
b10 3
0%"
0x
0C
b100 c
0w
17
1T
1F
1[
0U
0\
0+
b10 *
b10 /
b10 0
1~
1v
1n
1i
b11 .
b11 4
1."
1-
#780
0-
#790
1-"
0/"
1w
b101 c
0x
1D
b110 (
b110 1
b110 3
1+"
07
0F
0T
0E
0[
05
1=
1U
1\
0]
1^
0+
1*"
1'"
1y
1q
1k
1h
0&"
0!"
0o
0j
0g
0~
0v
0n
0i
b110 *
b110 /
b110 0
12"
00"
b100 4
0."
b100 .
1-
#800
0-
#810
1/"
1x
0-"
b110 c
0w
0D
b111 (
b111 1
b111 3
1%"
1F
1E
1[
0=
0\
0+
b111 *
b111 /
b111 0
1~
1v
1n
1i
b101 .
b101 4
1."
1-
#820
0-
#830
1-"
b111 c
1w
b101 (
b101 1
b101 3
0("
0F
1Z
0[
0Y
1\
0^
0+
1&"
1!"
1o
1j
1g
0~
0v
0n
0i
b101 *
b101 /
b101 0
10"
b110 4
0."
b110 .
1-
#840
0-
#850
13"
1{
01"
0z
0@
1B
1A
0/"
0-"
b100 (
b100 1
b100 3
0%"
0x
b1000 c
0w
0X
17
1T
1F
1[
0U
0\
0+
b100 *
b100 /
b100 0
1~
1v
1n
1i
b111 .
b111 4
1."
1-
#860
0-
#870
05"
0}
0B
1-"
13"
0/"
1w
1{
1?
b1001 c
0x
1C
1D
1X
b1100 (
b1100 1
b1100 3
1,"
07
0F
0Q
0Z
0T
0E
0[
0<
16
1Y
1=
1U
1\
0a
1]
1^
0+
1)"
1""
1p
1l
1d
0*"
0'"
0y
0q
0k
0h
0&"
0!"
0o
0j
0g
0~
0v
0n
0i
b1100 *
b1100 /
b1100 0
14"
02"
00"
b1000 4
0."
b1000 .
1-
#880
0-
#890
1/"
1x
0-"
b1010 c
0w
0D
b1101 (
b1101 1
b1101 3
1%"
1F
1E
1[
0=
0\
0+
b1101 *
b1101 /
b1101 0
1~
1v
1n
1i
b1001 .
b1001 4
1."
1-
#900
0-
#910
1-"
b1011 c
1w
b1111 (
b1111 1
b1111 3
1("
0F
0[
06
1\
0^
0+
1&"
1!"
1o
1j
1g
0~
0v
0n
0i
b1111 *
b1111 /
b1111 0
10"
b1010 4
0."
b1010 .
1-
#920
0-
#930
11"
1z
0/"
0-"
b1110 (
b1110 1
b1110 3
0%"
0x
0C
b1100 c
0w
17
1T
1F
1[
0U
0\
0+
b1110 *
b1110 /
b1110 0
1~
1v
1n
1i
b1011 .
b1011 4
1."
1-
#940
0-
#950
1-"
0/"
1w
b1010 (
b1010 1
b1010 3
0+"
b1101 c
0x
1D
07
0F
1R
0T
0E
0[
0S
1=
1U
1\
0]
1^
0+
1*"
1'"
1y
1q
1k
1h
0&"
0!"
0o
0j
0g
0~
0v
0n
0i
b1010 *
b1010 /
b1010 0
12"
00"
b1100 4
0."
b1100 .
1-
#960
0-
#970
1/"
1x
0-"
b1110 c
0w
0D
b1011 (
b1011 1
b1011 3
1%"
1F
1E
1[
0=
0\
0+
b1011 *
b1011 /
b1011 0
1~
1v
1n
1i
b1101 .
b1101 4
1."
1-
#980
0-
#990
1-"
b1111 c
1w
b1001 (
b1001 1
b1001 3
0("
0F
1Z
0[
0Y
1\
0^
0+
1&"
1!"
1o
1j
1g
0~
0v
0n
0i
b1001 *
b1001 /
b1001 0
10"
b1110 4
0."
b1110 .
1-
#1000
0-
#1010
15"
1}
03"
01"
0{
0?
0z
1Q
1B
0/"
0-"
b1000 (
b1000 1
b1000 3
0%"
0x
b10000 c
0w
0X
17
1T
1F
1[
0U
0\
0+
b1000 *
b1000 /
b1000 0
1~
1v
1n
1i
b1111 .
b1111 4
1."
1-
#1020
0-
#1030
1@
17"
15"
0B
0A
1-"
b1 b
1t
1}
03"
0/"
1w
0{
b10001 c
0x
1C
1D
1X
0N
0>
07
0F
0Q
0R
0Z
0T
0E
0[
1O
15
1S
16
1Y
1=
1U
1\
1a
1]
1^
b11000 (
b11000 1
b11000 3
1#"
1|
1r
1m
0)"
0""
0p
0l
0d
0*"
0'"
0y
0q
0k
0h
0&"
0!"
0o
0j
0g
0~
0v
0n
0i
b11000 *
b11000 /
b11000 0
16"
04"
02"
00"
b10000 4
0."
b10000 .
1-
#1040
0-
#1050
1/"
1x
0-"
b10010 c
0w
0D
b11001 (
b11001 1
b11001 3
1%"
1F
1E
1[
0=
0\
0+
b11001 *
b11001 /
b11001 0
1~
1v
1n
1i
b10001 .
b10001 4
1."
1-
#1060
0-
#1070
1-"
b10011 c
1w
b11011 (
b11011 1
b11011 3
1("
0F
0[
06
1\
0^
0+
1&"
1!"
1o
1j
1g
0~
0v
0n
0i
b11011 *
b11011 /
b11011 0
10"
b10010 4
0."
b10010 .
1-
#1080
0-
#1090
11"
1z
0/"
0-"
b11010 (
b11010 1
b11010 3
0%"
0x
0C
b10100 c
0w
17
1T
1F
1[
0U
0\
0+
b11010 *
b11010 /
b11010 0
1~
1v
1n
1i
b10011 .
b10011 4
1."
1-
#1100
0-
#1110
1-"
0/"
1w
b10101 c
0x
1D
b11110 (
b11110 1
b11110 3
1+"
07
0F
0T
0E
0[
05
1=
1U
1\
0]
1^
0+
1*"
1'"
1y
1q
1k
1h
0&"
0!"
0o
0j
0g
0~
0v
0n
0i
b11110 *
b11110 /
b11110 0
12"
00"
b10100 4
0."
b10100 .
1-
#1120
0-
#1130
1/"
1x
0-"
b10110 c
0w
0D
b11111 (
b11111 1
b11111 3
1%"
1F
1E
1[
0=
0\
0+
b11111 *
b11111 /
b11111 0
1~
1v
1n
1i
b10101 .
b10101 4
1."
1-
#1140
0-
#1150
1-"
b10111 c
1w
b11101 (
b11101 1
b11101 3
0("
0F
1Z
0[
0Y
1\
0^
0+
1&"
1!"
1o
1j
1g
0~
0v
0n
0i
b11101 *
b11101 /
b11101 0
10"
b10110 4
0."
b10110 .
1-
#1160
0-
#1170
13"
1{
01"
0z
0@
1B
1A
0/"
0-"
b11100 (
b11100 1
b11100 3
0%"
0x
b11000 c
0w
0X
17
1T
1F
1[
0U
0\
0+
b11100 *
b11100 /
b11100 0
1~
1v
1n
1i
b10111 .
b10111 4
1."
1-
#1180
0-
#1190
09"
0u
1H
17"
15"
b1 b
1t
1}
0I
0N
0>
0B
1-"
1M
13"
0/"
1w
b10100 (
b10100 1
b10100 3
0,"
1O
1{
b11001 c
0x
1C
1D
1X
0P
07
0F
1V
0Q
0Z
0T
0E
0[
0W
16
1Y
1=
1U
1\
0a
1]
1^
0+
1)"
1""
1p
1l
1d
0*"
0'"
0y
0q
0k
0h
0&"
0!"
0o
0j
0g
0~
0v
0n
0i
b10100 *
b10100 /
b10100 0
14"
02"
00"
b11000 4
0."
b11000 .
1-
#1200
0-
#1210
1/"
1x
0-"
b11010 c
0w
0D
b10101 (
b10101 1
b10101 3
1%"
1F
1E
1[
0=
0\
0+
b10101 *
b10101 /
b10101 0
1~
1v
1n
1i
b11001 .
b11001 4
1."
1-
#1220
0-
#1230
1-"
b11011 c
1w
b10111 (
b10111 1
b10111 3
1("
0F
0[
06
1\
0^
0+
1&"
1!"
1o
1j
1g
0~
0v
0n
0i
b10111 *
b10111 /
b10111 0
10"
b11010 4
0."
b11010 .
1-
#1240
0-
#1250
11"
1z
0/"
0-"
b10110 (
b10110 1
b10110 3
0%"
0x
0C
b11100 c
0w
17
1T
1F
1[
0U
0\
0+
b10110 *
b10110 /
b10110 0
1~
1v
1n
1i
b11011 .
b11011 4
1."
1-
#1260
0-
#1270
1-"
0/"
1w
b10010 (
b10010 1
b10010 3
0+"
b11101 c
0x
1D
07
0F
1R
0T
0E
0[
0S
1=
1U
1\
0]
1^
0+
1*"
1'"
1y
1q
1k
1h
0&"
0!"
0o
0j
0g
0~
0v
0n
0i
b10010 *
b10010 /
b10010 0
12"
00"
b11100 4
0."
b11100 .
1-
#1280
0-
#1290
1/"
1x
0-"
b11110 c
0w
0D
b10011 (
b10011 1
b10011 3
1%"
1F
1E
1[
0=
0\
0+
b10011 *
b10011 /
b10011 0
1~
1v
1n
1i
b11101 .
b11101 4
1."
1-
#1300
0-
